{
  "urls": {
    "main": {
      "path":"/",
      "controller":"\\Ta1ler\\Storymap\\Controller\\IndexController::indexAction"
    },
    "goods": {
      "path":"/goods/",
      "controller":"\\Ta1ler\\Storymap\\Controller\\GoodsController::indexAction",
      "methods": ["GET"]
    },
    "api_token_get": {
      "path":"/api/token/",
      "controller":"\\Ta1ler\\Storymap\\Controller\\Api\\TokenController::getAction",
      "methods": ["GET"]
    },
    "api_token_delete": {
      "path":"/api/token/",
      "controller":"\\Ta1ler\\Storymap\\Controller\\Api\\TokenController::deleteAction",
      "methods": ["DELETE"]
    },
    "api_register": {
      "path":"/api/user/",
      "controller":"\\Ta1ler\\Storymap\\Controller\\Api\\UserController::registerUser",
      "methods": ["POST"]
    },
    "api_get_current_user": {
      "path":"/api/user/current/",
      "controller":"\\Ta1ler\\Storymap\\Controller\\Api\\UserController::getCurrentAction",
      "methods": ["GET"]
    },
    "api_get_user": {
      "path":"/api/user/{user_id}/",
      "controller":"\\Ta1ler\\Storymap\\Controller\\Api\\UserController::getUser",
      "methods": ["GET"],
      "requirements": {
        "user_id":"\\d+"
      }
    },
    "api_delete_user": {
      "path":"/api/user/{user_id}/",
      "controller":"\\Ta1ler\\Storymap\\Controller\\Api\\UserController::deleteAction",
      "methods": ["DELETE"]
    },
    "api_get_user_stories": {
      "path":"/api/user/{user_id}/stories/",
      "controller":"\\Ta1ler\\Storymap\\Controller\\Api\\UserController::getStoriesAction",
      "methods": ["GET"]
    },
    "api_get_story": {
      "path":"/api/story/{story_id}/",
      "controller":"\\Ta1ler\\Storymap\\Controller\\Api\\StoryController::getAction",
      "methods": ["GET"]
    },
    "api_create_story": {
      "path":"/api/story/",
      "controller":"\\Ta1ler\\Storymap\\Controller\\Api\\StoryController::createAction",
      "methods": ["POST"]
    },
    "api_delete_story": {
      "path":"/api/story/{story_id}/",
      "controller":"\\Ta1ler\\Storymap\\Controller\\Api\\StoryController::deleteAction",
      "methods": ["DELETE"]
    },
    "api_get_story_users": {
      "path":"/api/story/{story_id}/users/",
      "controller":"\\Ta1ler\\Storymap\\Controller\\Api\\StoryController::getUsersAction",
      "methods": ["GET"]
    },
    "api_change_story_users": {
      "path":"/api/story/{story_id}/users/",
      "controller":"\\Ta1ler\\Storymap\\Controller\\Api\\StoryController::changeUsersAction",
      "methods": ["POST"]
    },
    "api_get_story_cards": {
      "path":"/api/story/{story_id}/cards/",
      "controller":"\\Ta1ler\\Storymap\\Controller\\Api\\StoryController::getCardsAction",
      "methods": ["GET"]
    },
    "api_create_card": {
      "path":"/api/story/{story_id}/card/",
      "controller":"\\Ta1ler\\Storymap\\Controller\\Api\\CardController::createAction",
      "methods": ["POST"]
    },
    "api_get_tags": {
      "path":"/api/story/{story_id}/tags/",
      "controller":"\\Ta1ler\\Storymap\\Controller\\Api\\StoryController::getTagsAction",
      "methods": ["GET"]
    },
    "api_create_tag": {
      "path":"/api/story/{story_id}/tag/",
      "controller":"\\Ta1ler\\Storymap\\Controller\\Api\\CardController::createAction",
      "methods": ["POST"]
    },
    "api_get_card": {
      "path":"/api/card/{card_id}/",
      "controller":"\\Ta1ler\\Storymap\\Controller\\Api\\CardController::getAction",
      "methods": ["GET"]
    },
    "api_delete_card": {
      "path":"/api/card/{card_id}/",
      "controller":"\\Ta1ler\\Storymap\\Controller\\Api\\CardController::deleteAction",
      "methods": ["DELETE"]
    },
    "api_change_card_position": {
      "path":"/api/card/{card_id}/position/",
      "controller":"\\Ta1ler\\Storymap\\Controller\\Api\\CardController::changePosAction",
      "methods": ["POST"]
    },
    "api_get_author": {
      "path":"/api/card/{card_id}/author/",
      "controller":"\\Ta1ler\\Storymap\\Controller\\Api\\CardController::getAuthorAction",
      "methods": ["GET"]
    },
    "api_get_card_tags": {
      "path":"/api/card/{card_id}/tags/",
      "controller":"\\Ta1ler\\Storymap\\Controller\\Api\\CardController::getTagsAction",
      "methods": ["GET"]
    },
    "api_change_card_tags": {
      "path":"/api/card/{card_id}/tags/",
      "controller":"\\Ta1ler\\Storymap\\Controller\\Api\\CardController::changeTagsAction",
      "methods": ["POST"]
    },
    "api_change_tag": {
      "path":"/api/tag/{tag_id}/",
      "controller":"\\Ta1ler\\Storymap\\Controller\\Api\\TagController::changeAction",
      "methods": ["POST", "PUT"]
    }
  },
  "db": {
    "servername": "localhost",
    "db_name": "storymap",
    "username": "app",
    "password": "app"
  }
}